Create and Analyse a Dataset
…
owid_search("internet")

When running this line of code around 10 datasets about the internet
are returned. Let’s use the dataset with the title: Share of the
population using the Internet. The corresponding chart_id to this data
is: “Share of the population using the Internet”. Using the chart_id as
an argument to owid() imports that data into R, assigning
it to an object called internet. We use the rename argument to give the
value column a shorter a clean name.

internet <- owid("share-of-individuals-using-the-internet", rename = "internet_use")
internet
#> # A tibble: 6,660 × 4
#>    entity      code   year internet_use
#>  * <chr>       <chr> <int>        <dbl>
#>  1 Afghanistan AFG    1990      0      
#>  2 Afghanistan AFG    1991      0      
#>  3 Afghanistan AFG    1992      0      
#>  4 Afghanistan AFG    1993      0      
#>  5 Afghanistan AFG    1994      0      
#>  6 Afghanistan AFG    1995      0      
#>  7 Afghanistan AFG    2001      0.00472
#>  8 Afghanistan AFG    2002      0.00456
#>  9 Afghanistan AFG    2003      0.0879 
#> 10 Afghanistan AFG    2004      0.106  
#> # … with 6,650 more rows
…
Now let’s get data on democracy, first searching for a data source
and then importing it using owid(). Using that data we’ll
do some similar exploration to what we did with internet use data.

owid_search("democrac")

democracy <- owid("electoral-democracy", rename = c("electoral_democracy", "vdem_high", "vdem_low"))
democracy
#> # A tibble: 32,518 × 6
#>    entity      code   year electoral_democracy vdem_high vdem_low
#>  * <chr>       <chr> <int>               <dbl>     <dbl>    <dbl>
#>  1 Afghanistan AFG    1789               0.019     0.024     0.01
#>  2 Afghanistan AFG    1790               0.019     0.024     0.01
#>  3 Afghanistan AFG    1791               0.019     0.024     0.01
#>  4 Afghanistan AFG    1792               0.019     0.024     0.01
#>  5 Afghanistan AFG    1793               0.019     0.024     0.01
#>  6 Afghanistan AFG    1794               0.019     0.024     0.01
#>  7 Afghanistan AFG    1795               0.019     0.024     0.01
#>  8 Afghanistan AFG    1796               0.019     0.024     0.01
#>  9 Afghanistan AFG    1797               0.019     0.024     0.01
#> 10 Afghanistan AFG    1798               0.019     0.024     0.01
#> # … with 32,508 more rows
…
